4 Part 4：Figure 2 — CMH-weighted absence proportions – 讓你的 Vabysmo RWE 長得像 Ophthalmology 論文
…
all_results

# A tibble: 24 × 7
  outcome   week arm         p_hat     se lower upper
  <chr>    <dbl> <fct>       <dbl>  <dbl> <dbl> <dbl>
1 abs_irf      0 aflibercept 0.520 0.0193 0.482 0.558
2 abs_irf      0 faricimab   0.574 0.0190 0.537 0.611
3 abs_srf      0 aflibercept 0.336 0.0178 0.301 0.371
4 abs_srf      0 faricimab   0.336 0.0180 0.300 0.371
5 abs_both     0 aflibercept 0.170 0.0142 0.142 0.198
6 abs_both     0 faricimab   0.189 0.0149 0.160 0.218
# ℹ 18 more rows
…
p_table <- expand.grid(
  outcome = c("abs_irf", "abs_srf", "abs_both"),
  wk      = c(4, 8, 12),
  stringsAsFactors = FALSE
) |>
  rowwise() |>
  mutate(p = get_p(outcome, wk)) |>
  ungroup() |>
  rename(week = wk)

p_table

# A tibble: 9 × 3
  outcome   week        p
  <chr>    <dbl>    <dbl>
1 abs_irf      4 0.00634 
2 abs_srf      4 0.00332 
3 abs_both     4 0.000198
4 abs_irf      8 0.0284  
5 abs_srf      8 0.0708  
6 abs_both     8 0.0208  
# ℹ 3 more rows
…
